<?xml version="1.0" encoding="UTF-8" standalone="no"?>
<!-- Created with Inkscape (http://www.inkscape.org/) -->

<svg
   width="210mm"
   height="297mm"
   viewBox="0 0 210 297"
   version="1.1"
   id="svg5"
   xml:space="preserve"
   inkscape:version="1.2.2 (b0a8486541, 2022-12-01)"
   sodipodi:docname="matrix.svg"
   xmlns:inkscape="http://www.inkscape.org/namespaces/inkscape"
   xmlns:sodipodi="http://sodipodi.sourceforge.net/DTD/sodipodi-0.dtd"
   xmlns="http://www.w3.org/2000/svg"
   xmlns:svg="http://www.w3.org/2000/svg"><sodipodi:namedview
     id="namedview7"
     pagecolor="#ffffff"
     bordercolor="#000000"
     borderopacity="0.25"
     inkscape:showpageshadow="2"
     inkscape:pageopacity="0.0"
     inkscape:pagecheckerboard="0"
     inkscape:deskcolor="#d1d1d1"
     inkscape:document-units="mm"
     showgrid="false"
     inkscape:zoom="0.19398324"
     inkscape:cx="268.0644"
     inkscape:cy="-229.40127"
     inkscape:window-width="598"
     inkscape:window-height="994"
     inkscape:window-x="1290"
     inkscape:window-y="20"
     inkscape:window-maximized="1"
     inkscape:current-layer="layer1" /><defs
     id="defs2" /><g
     inkscape:label="Layer 1"
     inkscape:groupmode="layer"
     id="layer1"><path
       style="fill:#ff0000;stroke-width:1.49943"
       d="M 5.8047057,161.78462 V 69.314928 h 9.3365423 c 7.261753,0 9.33654,0.481618 9.33654,2.167259 0,1.605379 -1.81544,2.16726 -7.002406,2.16726 h -7.002406 v 88.135173 88.13514 h 7.002406 c 5.186966,0 7.002406,0.56191 7.002406,2.16726 0,1.68566 -2.074787,2.16725 -9.33654,2.16725 H 5.8047057 Z m 180.5064743,90.3024 c 0,-1.60535 1.81545,-2.16726 7.00241,-2.16726 H 200.316 V 161.78462 73.649447 h -7.00241 c -5.18696,0 -7.00241,-0.561881 -7.00241,-2.16726 0,-1.685641 2.07478,-2.167259 9.33655,-2.167259 h 9.33654 v 92.469692 92.46965 h -9.33654 c -7.26177,0 -9.33655,-0.48159 -9.33655,-2.16725 z M 50.931323,162.50703 v -32.50888 h 9.336542 c 9.007073,0 9.336544,0.13197 9.336544,3.74054 v 3.74053 l 4.788199,-3.74095 c 2.633513,-2.05753 6.659896,-4.12017 8.947521,-4.58362 2.287623,-0.46349 4.929237,-1.05551 5.87026,-1.31565 4.510513,-1.24684 16.314881,2.60871 19.816331,6.47247 l 3.71094,4.09489 4.63483,-4.30348 c 12.21473,-11.34144 36.46178,-6.11845 40.93025,8.81669 0.84566,2.82649 1.54145,15.70447 1.54623,28.61771 l 0.01,23.47862 h -10.11462 -10.11457 v -23.73497 -23.73498 l -4.10008,-2.99454 c -7.20544,-5.2626 -14.90235,-3.18388 -18.59497,5.02195 -1.54407,3.43129 -2.20238,10.95444 -2.20238,25.16838 v 20.27416 h -9.23182 -9.231846 l -0.494465,-23.97064 c -0.477561,-23.18422 -0.614287,-24.06117 -4.167333,-26.72953 -5.238355,-3.93398 -10.616687,-3.43852 -15.897247,1.4645 l -4.548573,4.22337 v 22.50616 22.50614 H 61.04591 50.931323 Z"
       id="path302" /></g></svg>
